{
    "Lpa_kejahatan" : "http://medialisa.id:9900/lp_a",
    "Lpb_kejahatan" : "http://medialisa.id:9900/lp_b",
    "Lp_gangguan" : "http://medialisa.id:9900/lp_gangguan",
    "Lp_pelanggaran" : "http://medialisa.id:9900/lp_pelanggaran",
    "Lp_bencana" : "http://medialisa.id:9900/lp_bencana",
    "serla" : "http://medialisa.id:9900/serla",
    "polda" : "http://medialisa.id:9900/polda",
    "polres" : "http://medialisa.id:9900/polres",
    "polsek" : "http://medialisa.id:9900/polsek"
}